<mxfile host="65bd71144e">
    <diagram id="R2lEEEUBdFMjLlhIrx00" name="Page-1">
        <mxGraphModel dx="1639" dy="938" grid="0" gridSize="1" guides="1" tooltips="1" connect="1" arrows="1" fold="1" page="1" pageScale="1" pageWidth="850" pageHeight="1100" background="#ffffff" math="0" shadow="0" extFonts="Permanent Marker^https://fonts.googleapis.com/css?family=Permanent+Marker">
            <root>
                <mxCell id="0"/>
                <mxCell id="1" parent="0"/>
                <object label="&lt;div&gt;Guests&lt;/div&gt;" Name="Branko" id="AlGqaDllIcV9lpxzXiRw-5">
                    <mxCell style="swimlane;childLayout=stackLayout;horizontal=1;startSize=50;horizontalStack=0;rounded=1;fontSize=14;fontStyle=0;strokeWidth=2;resizeParent=0;resizeLast=1;shadow=0;dashed=0;align=center;arcSize=4;whiteSpace=wrap;html=1;strokeColor=#030303;fillColor=#f5f5f5;fontColor=#333333;swimlaneLine=1;" parent="1" vertex="1">
                        <mxGeometry x="1433" y="708" width="271" height="176" as="geometry"/>
                    </mxCell>
                </object>
                <mxCell id="AlGqaDllIcV9lpxzXiRw-6" value="&lt;div&gt;GuestID (PK)&amp;nbsp;&lt;/div&gt;&lt;div&gt;LoyaltyProgramID (FK)&amp;nbsp;&lt;/div&gt;&lt;div&gt;Name&amp;nbsp;&lt;/div&gt;&lt;div&gt;Age&lt;/div&gt;&lt;div&gt;Type&amp;nbsp;&lt;/div&gt;&lt;div&gt;Phone&lt;/div&gt;&lt;div&gt;&lt;span style=&quot;background-color: initial;&quot;&gt;Email&lt;/span&gt;&lt;/div&gt;&lt;div&gt;&lt;span style=&quot;background-color: initial;&quot;&gt;Address&lt;/span&gt;&lt;/div&gt;" style="align=left;strokeColor=#030303;fillColor=#f5f5f5;spacingLeft=4;fontSize=12;verticalAlign=top;resizable=1;rotatable=1;part=1;html=1;movable=1;deletable=1;editable=1;locked=0;connectable=1;fontColor=#333333;shadow=0;swimlaneLine=1;" parent="AlGqaDllIcV9lpxzXiRw-5" vertex="1">
                    <mxGeometry y="50" width="271" height="126" as="geometry"/>
                </mxCell>
                <mxCell id="AlGqaDllIcV9lpxzXiRw-11" value="Reservations" style="swimlane;childLayout=stackLayout;horizontal=1;startSize=50;horizontalStack=0;rounded=1;fontSize=14;fontStyle=0;strokeWidth=2;resizeParent=0;resizeLast=1;shadow=0;dashed=0;align=center;arcSize=4;whiteSpace=wrap;html=1;strokeColor=#030303;fillColor=#f5f5f5;fontColor=#333333;swimlaneLine=1;" parent="1" vertex="1">
                    <mxGeometry x="1170" y="460" width="180" height="210" as="geometry"/>
                </mxCell>
                <mxCell id="AlGqaDllIcV9lpxzXiRw-12" value="&lt;div&gt;ReservationID (PK)&amp;nbsp;&lt;/div&gt;&lt;div&gt;GuestID (FK)&amp;nbsp;&lt;/div&gt;&lt;div&gt;&lt;span style=&quot;background-color: initial;&quot;&gt;BillingID (FK)&amp;nbsp;&lt;/span&gt;&lt;/div&gt;&lt;div&gt;&lt;span style=&quot;background-color: initial;&quot;&gt;CheckInDate&amp;nbsp;&lt;/span&gt;&lt;/div&gt;&lt;div&gt;CheckOutDate&amp;nbsp;&lt;/div&gt;&lt;div&gt;Created At&amp;nbsp;&lt;/div&gt;&lt;div&gt;&lt;span style=&quot;background-color: initial;&quot;&gt;LoyaltyPointsReward&lt;/span&gt;&lt;br&gt;&lt;/div&gt;" style="align=left;strokeColor=#030303;fillColor=#f5f5f5;spacingLeft=4;fontSize=12;verticalAlign=top;resizable=0;rotatable=0;part=1;html=1;fontColor=#333333;shadow=0;swimlaneLine=1;" parent="AlGqaDllIcV9lpxzXiRw-11" vertex="1">
                    <mxGeometry y="50" width="180" height="160" as="geometry"/>
                </mxCell>
                <mxCell id="AlGqaDllIcV9lpxzXiRw-15" value="&lt;div&gt;Spaces&lt;/div&gt;" style="swimlane;childLayout=stackLayout;horizontal=1;startSize=50;horizontalStack=0;rounded=1;fontSize=14;fontStyle=0;strokeWidth=2;resizeParent=0;resizeLast=1;shadow=0;dashed=0;align=center;arcSize=4;whiteSpace=wrap;html=1;strokeColor=#030303;fillColor=#f5f5f5;fontColor=#333333;swimlaneLine=1;" parent="1" vertex="1">
                    <mxGeometry x="820" y="480" width="210" height="180" as="geometry"/>
                </mxCell>
                <mxCell id="AlGqaDllIcV9lpxzXiRw-16" value="&lt;div&gt;SpaceID (PK)&amp;nbsp;&lt;/div&gt;&lt;div&gt;LocationID (FK)&amp;nbsp;&lt;/div&gt;&lt;div&gt;SpaceTypeID (FK)&amp;nbsp;&lt;/div&gt;&lt;div&gt;Number&lt;span style=&quot;white-space: pre;&quot;&gt;&#9;&lt;/span&gt;&lt;span style=&quot;white-space: pre;&quot;&gt;&#9;&lt;/span&gt;&lt;br&gt;&lt;/div&gt;&lt;div&gt;Status&amp;nbsp;&lt;/div&gt;" style="align=left;strokeColor=#030303;fillColor=#f5f5f5;spacingLeft=4;fontSize=12;verticalAlign=top;resizable=0;rotatable=0;part=1;html=1;fontColor=#333333;shadow=0;swimlaneLine=1;" parent="AlGqaDllIcV9lpxzXiRw-15" vertex="1">
                    <mxGeometry y="50" width="210" height="130" as="geometry"/>
                </mxCell>
                <mxCell id="AlGqaDllIcV9lpxzXiRw-22" value="Locations" style="swimlane;childLayout=stackLayout;horizontal=1;startSize=50;horizontalStack=0;rounded=1;fontSize=14;fontStyle=0;strokeWidth=2;resizeParent=0;resizeLast=1;shadow=0;dashed=0;align=center;arcSize=4;whiteSpace=wrap;html=1;strokeColor=#030303;fillColor=#f5f5f5;fontColor=#333333;swimlaneLine=1;" parent="1" vertex="1">
                    <mxGeometry x="550" y="490" width="210" height="142" as="geometry"/>
                </mxCell>
                <mxCell id="AlGqaDllIcV9lpxzXiRw-23" value="&lt;div&gt;LocationID (PK)&lt;/div&gt;&lt;div&gt;City&lt;/div&gt;&lt;div&gt;Address&amp;nbsp;&lt;/div&gt;&lt;div&gt;Country&amp;nbsp;&lt;br&gt;&lt;/div&gt;&lt;div&gt;Stars&amp;nbsp;&lt;/div&gt;" style="align=left;strokeColor=#030303;fillColor=#f5f5f5;spacingLeft=4;fontSize=12;verticalAlign=top;resizable=0;rotatable=0;part=1;html=1;fontColor=#333333;shadow=0;swimlaneLine=1;" parent="AlGqaDllIcV9lpxzXiRw-22" vertex="1">
                    <mxGeometry y="50" width="210" height="92" as="geometry"/>
                </mxCell>
                <mxCell id="AlGqaDllIcV9lpxzXiRw-26" value="Staff" style="swimlane;childLayout=stackLayout;horizontal=1;startSize=50;horizontalStack=0;rounded=1;fontSize=14;fontStyle=0;strokeWidth=2;resizeParent=0;resizeLast=1;shadow=0;dashed=0;align=center;arcSize=4;whiteSpace=wrap;html=1;strokeColor=#030303;fillColor=#f5f5f5;fontColor=#333333;swimlaneLine=1;" parent="1" vertex="1">
                    <mxGeometry x="221" y="478" width="260" height="190" as="geometry"/>
                </mxCell>
                <mxCell id="AlGqaDllIcV9lpxzXiRw-27" value="&lt;div&gt;StaffID (PK)&lt;/div&gt;&lt;div&gt;DepartmentID (FK)&lt;/div&gt;&lt;div&gt;Name&amp;nbsp;&lt;/div&gt;&lt;div&gt;EmploymentNumber&lt;/div&gt;&lt;div&gt;Role&amp;nbsp;&lt;/div&gt;&lt;div&gt;&lt;span style=&quot;background-color: initial;&quot;&gt;Address&amp;nbsp;&lt;/span&gt;&lt;/div&gt;&lt;div&gt;Phone&amp;nbsp;&lt;/div&gt;&lt;div&gt;&lt;span style=&quot;background-color: initial;&quot;&gt;Salary&lt;/span&gt;&lt;/div&gt;" style="align=left;strokeColor=#030303;fillColor=#f5f5f5;spacingLeft=4;fontSize=12;verticalAlign=top;resizable=0;rotatable=0;part=1;html=1;fontColor=#333333;shadow=0;swimlaneLine=1;" parent="AlGqaDllIcV9lpxzXiRw-26" vertex="1">
                    <mxGeometry y="50" width="260" height="140" as="geometry"/>
                </mxCell>
                <mxCell id="AlGqaDllIcV9lpxzXiRw-28" value="Departments" style="swimlane;childLayout=stackLayout;horizontal=1;startSize=50;horizontalStack=0;rounded=1;fontSize=14;fontStyle=0;strokeWidth=2;resizeParent=0;resizeLast=1;shadow=0;dashed=0;align=center;arcSize=4;whiteSpace=wrap;html=1;strokeColor=#030303;fillColor=#f5f5f5;fontColor=#333333;swimlaneLine=1;" parent="1" vertex="1">
                    <mxGeometry x="270" y="900" width="190" height="120" as="geometry"/>
                </mxCell>
                <mxCell id="AlGqaDllIcV9lpxzXiRw-29" value="&lt;div&gt;DepartmentID (PK)&lt;/div&gt;&lt;div&gt;Name&amp;nbsp;&lt;/div&gt;" style="align=left;strokeColor=#030303;fillColor=#f5f5f5;spacingLeft=4;fontSize=12;verticalAlign=top;resizable=0;rotatable=0;part=1;html=1;fontColor=#333333;shadow=0;swimlaneLine=1;" parent="AlGqaDllIcV9lpxzXiRw-28" vertex="1">
                    <mxGeometry y="50" width="190" height="70" as="geometry"/>
                </mxCell>
                <mxCell id="AlGqaDllIcV9lpxzXiRw-32" value="Services" style="swimlane;childLayout=stackLayout;horizontal=1;startSize=50;horizontalStack=0;rounded=1;fontSize=14;fontStyle=0;strokeWidth=2;resizeParent=0;resizeLast=1;shadow=0;dashed=0;align=center;arcSize=4;whiteSpace=wrap;html=1;strokeColor=#030303;fillColor=#f5f5f5;fontColor=#333333;swimlaneLine=1;" parent="1" vertex="1">
                    <mxGeometry x="1130" y="702.5" width="200" height="177.5" as="geometry"/>
                </mxCell>
                <mxCell id="AlGqaDllIcV9lpxzXiRw-33" value="&lt;div&gt;ServiceID (PK)&amp;nbsp;&lt;/div&gt;&lt;div&gt;ReservationID (FK)&amp;nbsp;&lt;/div&gt;&lt;div&gt;ServiceTypeID (FK)&lt;/div&gt;&lt;div&gt;&lt;span style=&quot;background-color: initial;&quot;&gt;GuestID (FK)&lt;/span&gt;&lt;/div&gt;&lt;div&gt;SpaceID (FK)&amp;nbsp;&lt;/div&gt;&lt;div&gt;&lt;span style=&quot;background-color: initial;&quot;&gt;Date&amp;nbsp;&lt;/span&gt;&lt;br&gt;&lt;/div&gt;&lt;div&gt;&lt;span style=&quot;background-color: initial;&quot;&gt;Quantity&lt;/span&gt;&lt;br&gt;&lt;/div&gt;&lt;div&gt;Status&amp;nbsp;&lt;/div&gt;" style="align=left;strokeColor=#030303;fillColor=#f5f5f5;spacingLeft=4;fontSize=12;verticalAlign=top;resizable=0;rotatable=0;part=1;html=1;fontColor=#333333;shadow=0;swimlaneLine=1;" parent="AlGqaDllIcV9lpxzXiRw-32" vertex="1">
                    <mxGeometry y="50" width="200" height="127.5" as="geometry"/>
                </mxCell>
                <mxCell id="AlGqaDllIcV9lpxzXiRw-34" value="Billing" style="swimlane;childLayout=stackLayout;horizontal=1;startSize=50;horizontalStack=0;rounded=1;fontSize=14;fontStyle=0;strokeWidth=2;resizeParent=0;resizeLast=1;shadow=0;dashed=0;align=center;arcSize=4;whiteSpace=wrap;html=1;strokeColor=#030303;fillColor=#f5f5f5;fontColor=#333333;swimlaneLine=1;" parent="1" vertex="1">
                    <mxGeometry x="1450" y="226" width="250" height="180" as="geometry"/>
                </mxCell>
                <mxCell id="AlGqaDllIcV9lpxzXiRw-35" value="&lt;div&gt;BillingID (PK)&amp;nbsp;&lt;/div&gt;&lt;div&gt;ReservationID (FK)&lt;/div&gt;&lt;div&gt;&lt;span style=&quot;background-color: initial;&quot;&gt;TotalCost&lt;/span&gt;&lt;/div&gt;&lt;div&gt;&lt;span style=&quot;background-color: initial;&quot;&gt;PaymentMethod&lt;/span&gt;&lt;/div&gt;&lt;div&gt;BillingDate&amp;nbsp;&lt;/div&gt;&lt;div&gt;&lt;span style=&quot;background-color: initial;&quot;&gt;Status&lt;/span&gt;&lt;/div&gt;" style="align=left;strokeColor=#030303;fillColor=#f5f5f5;spacingLeft=4;fontSize=12;verticalAlign=top;resizable=0;rotatable=0;part=1;html=1;fontColor=#333333;shadow=0;swimlaneLine=1;" parent="AlGqaDllIcV9lpxzXiRw-34" vertex="1">
                    <mxGeometry y="50" width="250" height="130" as="geometry"/>
                </mxCell>
                <mxCell id="AlGqaDllIcV9lpxzXiRw-39" value="" style="fontSize=12;html=1;endArrow=ERzeroToMany;startArrow=ERmandOne;rounded=0;startSize=8;endSize=8;entryX=0.996;entryY=0.424;entryDx=0;entryDy=0;strokeColor=#030303;fontColor=#000000;fillColor=#f5f5f5;shadow=0;swimlaneLine=1;entryPerimeter=0;exitX=0;exitY=0.25;exitDx=0;exitDy=0;edgeStyle=orthogonalEdgeStyle;" parent="1" source="AlGqaDllIcV9lpxzXiRw-6" target="AlGqaDllIcV9lpxzXiRw-12" edge="1">
                    <mxGeometry width="100" height="100" relative="1" as="geometry">
                        <mxPoint x="1450" y="532" as="sourcePoint"/>
                        <mxPoint x="1520" y="620" as="targetPoint"/>
                    </mxGeometry>
                </mxCell>
                <mxCell id="AlGqaDllIcV9lpxzXiRw-41" value="" style="fontSize=12;html=1;endArrow=ERzeroToMany;startArrow=ERmandOne;rounded=0;startSize=8;endSize=8;entryX=1;entryY=0.25;entryDx=0;entryDy=0;edgeStyle=orthogonalEdgeStyle;exitX=1;exitY=0.5;exitDx=0;exitDy=0;strokeColor=#030303;fontColor=#000000;fillColor=#f5f5f5;shadow=0;swimlaneLine=1;" parent="1" source="AlGqaDllIcV9lpxzXiRw-12" target="AlGqaDllIcV9lpxzXiRw-33" edge="1">
                    <mxGeometry width="100" height="100" relative="1" as="geometry">
                        <mxPoint x="1290" y="595" as="sourcePoint"/>
                        <mxPoint x="1520" y="700" as="targetPoint"/>
                        <Array as="points">
                            <mxPoint x="1380" y="590"/>
                            <mxPoint x="1380" y="784"/>
                        </Array>
                    </mxGeometry>
                </mxCell>
                <mxCell id="AlGqaDllIcV9lpxzXiRw-42" value="" style="fontSize=12;html=1;endArrow=ERoneToMany;startArrow=ERmandOne;rounded=0;startSize=8;endSize=8;entryX=1;entryY=0.25;entryDx=0;entryDy=0;exitX=0;exitY=0.25;exitDx=0;exitDy=0;strokeColor=#030303;fontColor=#000000;fillColor=#f5f5f5;shadow=0;swimlaneLine=1;" parent="1" source="AlGqaDllIcV9lpxzXiRw-23" target="AlGqaDllIcV9lpxzXiRw-27" edge="1">
                    <mxGeometry width="100" height="100" relative="1" as="geometry">
                        <mxPoint x="600" y="560" as="sourcePoint"/>
                        <mxPoint x="1520" y="700" as="targetPoint"/>
                    </mxGeometry>
                </mxCell>
                <mxCell id="AlGqaDllIcV9lpxzXiRw-46" style="edgeStyle=none;curved=1;rounded=0;orthogonalLoop=1;jettySize=auto;html=1;exitX=0.75;exitY=0;exitDx=0;exitDy=0;fontSize=12;startSize=8;endSize=8;strokeColor=#030303;fontColor=#000000;fillColor=#f5f5f5;shadow=0;swimlaneLine=1;" parent="1" source="AlGqaDllIcV9lpxzXiRw-28" target="AlGqaDllIcV9lpxzXiRw-28" edge="1">
                    <mxGeometry relative="1" as="geometry"/>
                </mxCell>
                <mxCell id="28yMtJ7Yes-9GSf5h-jn-2" value="LoyaltyProgram" style="swimlane;childLayout=stackLayout;horizontal=1;startSize=50;horizontalStack=0;rounded=1;fontSize=14;fontStyle=0;strokeWidth=2;resizeParent=0;resizeLast=1;shadow=0;dashed=0;align=center;arcSize=4;whiteSpace=wrap;html=1;strokeColor=#030303;fillColor=#f5f5f5;fontColor=#333333;swimlaneLine=1;" parent="1" vertex="1">
                    <mxGeometry x="1749" y="734" width="199" height="120" as="geometry"/>
                </mxCell>
                <mxCell id="28yMtJ7Yes-9GSf5h-jn-3" value="LoyaltyID (PK)&amp;nbsp;&lt;div&gt;GuestID (FK)&amp;nbsp;&lt;/div&gt;&lt;div&gt;&lt;span style=&quot;background-color: initial;&quot;&gt;EnrollmentDate&amp;nbsp;&lt;/span&gt;&lt;/div&gt;&lt;div&gt;TotalLoyaltyPoints&lt;/div&gt;" style="align=left;strokeColor=#030303;fillColor=#f5f5f5;spacingLeft=4;fontSize=12;verticalAlign=top;resizable=0;rotatable=0;part=1;html=1;fontColor=#333333;shadow=0;swimlaneLine=1;" parent="28yMtJ7Yes-9GSf5h-jn-2" vertex="1">
                    <mxGeometry y="50" width="199" height="70" as="geometry"/>
                </mxCell>
                <mxCell id="28yMtJ7Yes-9GSf5h-jn-36" value="" style="fontSize=12;html=1;endArrow=ERzeroToOne;startArrow=ERmandOne;rounded=0;endSize=8;startSize=8;exitX=1;exitY=0.5;exitDx=0;exitDy=0;strokeColor=#030303;fontColor=#000000;fillColor=#f5f5f5;shadow=0;swimlaneLine=1;entryX=0;entryY=0.5;entryDx=0;entryDy=0;" parent="1" source="AlGqaDllIcV9lpxzXiRw-6" target="28yMtJ7Yes-9GSf5h-jn-3" edge="1">
                    <mxGeometry width="100" height="100" relative="1" as="geometry">
                        <mxPoint x="1357" y="573" as="sourcePoint"/>
                        <mxPoint x="1467" y="608" as="targetPoint"/>
                    </mxGeometry>
                </mxCell>
                <mxCell id="28yMtJ7Yes-9GSf5h-jn-37" value="" style="fontSize=12;html=1;endArrow=ERmandOne;startArrow=ERmandOne;rounded=0;endSize=8;startSize=8;exitX=1;exitY=0.25;exitDx=0;exitDy=0;entryX=0;entryY=0.25;entryDx=0;entryDy=0;strokeColor=#030303;fontColor=#000000;fillColor=#f5f5f5;shadow=0;swimlaneLine=1;snapToPoint=0;edgeStyle=orthogonalEdgeStyle;" parent="1" source="AlGqaDllIcV9lpxzXiRw-12" target="AlGqaDllIcV9lpxzXiRw-35" edge="1">
                    <mxGeometry width="100" height="100" relative="1" as="geometry">
                        <mxPoint x="1290" y="565" as="sourcePoint"/>
                        <mxPoint x="1490" y="550" as="targetPoint"/>
                    </mxGeometry>
                </mxCell>
                <mxCell id="28yMtJ7Yes-9GSf5h-jn-38" value="" style="edgeStyle=entityRelationEdgeStyle;fontSize=12;html=1;endArrow=ERoneToMany;startArrow=ERmandOne;fontFamily=Helvetica;fontColor=#000000;align=center;strokeColor=#030303;entryX=0;entryY=0.75;entryDx=0;entryDy=0;rounded=0;endSize=8;startSize=8;fillColor=#f5f5f5;shadow=0;swimlaneLine=1;" parent="1" target="AlGqaDllIcV9lpxzXiRw-16" edge="1">
                    <mxGeometry width="100" height="100" relative="1" as="geometry">
                        <mxPoint x="760" y="571" as="sourcePoint"/>
                        <mxPoint x="870" y="570.5" as="targetPoint"/>
                    </mxGeometry>
                </mxCell>
                <mxCell id="2" value="&lt;div&gt;Space Types&lt;/div&gt;" style="swimlane;childLayout=stackLayout;horizontal=1;startSize=50;horizontalStack=0;rounded=1;fontSize=14;fontStyle=0;strokeWidth=2;resizeParent=0;resizeLast=1;shadow=0;dashed=0;align=center;arcSize=4;whiteSpace=wrap;html=1;strokeColor=#030303;fillColor=#f5f5f5;fontColor=#333333;swimlaneLine=1;" parent="1" vertex="1">
                    <mxGeometry x="330" y="240" width="190" height="130" as="geometry">
                        <mxRectangle x="870" y="690" width="110" height="50" as="alternateBounds"/>
                    </mxGeometry>
                </mxCell>
                <mxCell id="3" value="&lt;div&gt;SpaceTypeID (PK)&lt;/div&gt;&lt;div&gt;Name&lt;/div&gt;&lt;div&gt;Capacity&amp;nbsp;&lt;/div&gt;&lt;div&gt;UnitPrice&lt;/div&gt;" style="align=left;strokeColor=#030303;fillColor=#f5f5f5;spacingLeft=4;fontSize=12;verticalAlign=top;resizable=0;rotatable=0;part=1;html=1;fontColor=#333333;shadow=0;swimlaneLine=1;" parent="2" vertex="1">
                    <mxGeometry y="50" width="190" height="80" as="geometry"/>
                </mxCell>
                <mxCell id="6" value="Service Type" style="swimlane;childLayout=stackLayout;horizontal=1;startSize=50;horizontalStack=0;rounded=1;fontSize=14;fontStyle=0;strokeWidth=2;resizeParent=0;resizeLast=1;shadow=0;dashed=0;align=center;arcSize=4;whiteSpace=wrap;html=1;strokeColor=#030303;fillColor=#f5f5f5;fontColor=#333333;swimlaneLine=1;" parent="1" vertex="1">
                    <mxGeometry x="860" y="700" width="190" height="160" as="geometry"/>
                </mxCell>
                <mxCell id="7" value="&lt;div&gt;ServiceTypeID (PK)&amp;nbsp;&lt;/div&gt;&lt;div&gt;&lt;span style=&quot;background-color: initial;&quot;&gt;DepartmentID (FK)&amp;nbsp;&lt;/span&gt;&lt;/div&gt;&lt;div&gt;&lt;span style=&quot;background-color: initial;&quot;&gt;Type&lt;/span&gt;&lt;/div&gt;&lt;div&gt;Description&lt;br&gt;&lt;/div&gt;&lt;div&gt;&lt;span style=&quot;background-color: initial;&quot;&gt;Unit Cost&amp;nbsp;&lt;/span&gt;&lt;br&gt;&lt;/div&gt;" style="align=left;strokeColor=#030303;fillColor=#f5f5f5;spacingLeft=4;fontSize=12;verticalAlign=top;resizable=0;rotatable=0;part=1;html=1;fontColor=#333333;shadow=0;swimlaneLine=1;" parent="6" vertex="1">
                    <mxGeometry y="50" width="190" height="110" as="geometry"/>
                </mxCell>
                <mxCell id="10" style="edgeStyle=none;fontSize=11;html=1;endArrow=ERzeroToMany;startArrow=ERmandOne;fontFamily=Helvetica;fontColor=#000000;align=center;strokeColor=#030303;entryX=-0.004;entryY=0.584;entryDx=0;entryDy=0;endFill=1;entryPerimeter=0;exitX=1.006;exitY=0.7;exitDx=0;exitDy=0;exitPerimeter=0;endSize=8;startSize=8;fillColor=#f5f5f5;shadow=0;swimlaneLine=1;" parent="1" source="7" target="AlGqaDllIcV9lpxzXiRw-33" edge="1">
                    <mxGeometry relative="1" as="geometry">
                        <mxPoint x="1030" y="815" as="sourcePoint"/>
                    </mxGeometry>
                </mxCell>
                <mxCell id="11" style="edgeStyle=orthogonalEdgeStyle;fontSize=11;html=1;endArrow=ERzeroToOne;endFill=1;fontFamily=Helvetica;fontColor=#000000;align=center;entryX=1.007;entryY=0.695;entryDx=0;entryDy=0;entryPerimeter=0;startArrow=ERzeroToOne;startFill=1;rounded=0;endSize=8;startSize=8;exitX=0;exitY=0.25;exitDx=0;exitDy=0;strokeColor=#030303;fillColor=#f5f5f5;shadow=0;swimlaneLine=1;" parent="1" source="AlGqaDllIcV9lpxzXiRw-33" target="AlGqaDllIcV9lpxzXiRw-16" edge="1">
                    <mxGeometry relative="1" as="geometry">
                        <mxPoint x="1130" y="800" as="sourcePoint"/>
                        <mxPoint x="1275" y="678.93" as="targetPoint"/>
                        <Array as="points">
                            <mxPoint x="1070" y="784"/>
                            <mxPoint x="1070" y="620"/>
                        </Array>
                    </mxGeometry>
                </mxCell>
                <mxCell id="14" value="LocationServiceTypes" style="swimlane;childLayout=stackLayout;horizontal=1;startSize=50;horizontalStack=0;rounded=1;fontSize=14;fontStyle=0;strokeWidth=2;resizeParent=0;resizeLast=1;shadow=0;dashed=0;align=center;arcSize=4;whiteSpace=wrap;html=1;strokeColor=#030303;fillColor=#f5f5f5;fontColor=#333333;swimlaneLine=1;" parent="1" vertex="1">
                    <mxGeometry x="550" y="700" width="210" height="160" as="geometry"/>
                </mxCell>
                <mxCell id="15" value="&lt;div&gt;LocationServiceTypeID (PK)&amp;nbsp;&lt;/div&gt;&lt;div&gt;LocationID (FK)&amp;nbsp;&lt;/div&gt;&lt;div&gt;ServiceTypeID (FK)&amp;nbsp;&lt;/div&gt;" style="align=left;strokeColor=#030303;fillColor=#f5f5f5;spacingLeft=4;fontSize=12;verticalAlign=top;resizable=0;rotatable=0;part=1;html=1;fontColor=#333333;shadow=0;swimlaneLine=1;" parent="14" vertex="1">
                    <mxGeometry y="50" width="210" height="110" as="geometry"/>
                </mxCell>
                <mxCell id="16" style="edgeStyle=none;rounded=0;html=1;exitX=1;exitY=0.25;exitDx=0;exitDy=0;entryX=0;entryY=0.25;entryDx=0;entryDy=0;strokeColor=#030303;startArrow=ERoneToMany;startFill=0;endArrow=ERmandOne;endFill=0;endSize=8;startSize=8;fontColor=#000000;fillColor=#f5f5f5;shadow=0;swimlaneLine=1;" parent="1" source="15" target="7" edge="1">
                    <mxGeometry relative="1" as="geometry"/>
                </mxCell>
                <mxCell id="17" style="edgeStyle=none;rounded=0;html=1;entryX=0.5;entryY=1;entryDx=0;entryDy=0;strokeColor=#030303;startArrow=ERoneToMany;startFill=0;endArrow=ERmandOne;endFill=0;endSize=8;startSize=8;fontColor=#000000;fillColor=#f5f5f5;shadow=0;swimlaneLine=1;" parent="1" source="14" target="AlGqaDllIcV9lpxzXiRw-23" edge="1">
                    <mxGeometry relative="1" as="geometry">
                        <mxPoint x="770" y="788.7499999999998" as="sourcePoint"/>
                        <mxPoint x="880" y="787.4999999999998" as="targetPoint"/>
                    </mxGeometry>
                </mxCell>
                <mxCell id="18" style="edgeStyle=none;rounded=0;html=1;entryX=0.75;entryY=0;entryDx=0;entryDy=0;strokeColor=#030303;startArrow=ERoneToMany;startFill=0;endArrow=ERmandOne;endFill=0;exitX=0.75;exitY=1;exitDx=0;exitDy=0;endSize=8;startSize=8;fontColor=#000000;fillColor=#f5f5f5;shadow=0;swimlaneLine=1;" parent="1" source="AlGqaDllIcV9lpxzXiRw-27" target="AlGqaDllIcV9lpxzXiRw-28" edge="1">
                    <mxGeometry relative="1" as="geometry">
                        <mxPoint x="439.65999999999997" y="650" as="sourcePoint"/>
                        <mxPoint x="439.65999999999997" y="750" as="targetPoint"/>
                    </mxGeometry>
                </mxCell>
                <mxCell id="5" style="edgeStyle=orthogonalEdgeStyle;fontSize=11;html=1;endArrow=ERoneToMany;startArrow=ERmandOne;fontFamily=Helvetica;fontColor=#000000;align=center;strokeColor=#030303;rounded=0;endFill=0;endSize=8;startSize=8;entryX=0;entryY=0.5;entryDx=0;entryDy=0;fillColor=#f5f5f5;shadow=0;swimlaneLine=1;" parent="1" source="3" target="AlGqaDllIcV9lpxzXiRw-16" edge="1">
                    <mxGeometry relative="1" as="geometry">
                        <mxPoint x="870" y="780" as="sourcePoint"/>
                        <mxPoint x="870" y="560" as="targetPoint"/>
                        <Array as="points">
                            <mxPoint x="440" y="450"/>
                            <mxPoint x="800" y="450"/>
                            <mxPoint x="800" y="595"/>
                        </Array>
                    </mxGeometry>
                </mxCell>
                <mxCell id="27" value="DinnerDetails" style="swimlane;childLayout=stackLayout;horizontal=1;startSize=50;horizontalStack=0;rounded=1;fontSize=14;fontStyle=0;strokeWidth=2;resizeParent=0;resizeLast=1;shadow=0;dashed=0;align=center;arcSize=4;whiteSpace=wrap;html=1;strokeColor=#030303;fillColor=#f5f5f5;fontColor=#333333;swimlaneLine=1;" parent="1" vertex="1">
                    <mxGeometry x="837" y="176.25" width="190" height="173.75" as="geometry"/>
                </mxCell>
                <mxCell id="28" value="&lt;div&gt;DinnerDetailsID (PK)&lt;/div&gt;&lt;div&gt;ReservationID (FK)&amp;nbsp;&lt;/div&gt;&lt;div&gt;SpaceID (FK)&amp;nbsp;&lt;/div&gt;&lt;div&gt;&lt;span style=&quot;background-color: initial;&quot;&gt;Date&amp;nbsp;&amp;nbsp;&lt;/span&gt;&lt;br&gt;&lt;/div&gt;&lt;div&gt;&lt;span style=&quot;background-color: initial;&quot;&gt;Time&amp;nbsp;&lt;/span&gt;&lt;br&gt;&lt;/div&gt;&lt;div&gt;&lt;span style=&quot;background-color: initial;&quot;&gt;Table Number&lt;/span&gt;&lt;/div&gt;&lt;div&gt;NumberOfGuests&lt;/div&gt;&lt;div&gt;Allergies&lt;/div&gt;" style="align=left;strokeColor=#030303;fillColor=#f5f5f5;spacingLeft=4;fontSize=12;verticalAlign=top;resizable=0;rotatable=0;part=1;html=1;fontColor=#333333;shadow=0;swimlaneLine=1;" parent="27" vertex="1">
                    <mxGeometry y="50" width="190" height="123.75" as="geometry"/>
                </mxCell>
                <mxCell id="30" value="" style="fontSize=12;html=1;endArrow=ERzeroToMany;startArrow=ERmandOne;rounded=0;startSize=8;endSize=8;exitX=0.75;exitY=0;exitDx=0;exitDy=0;strokeColor=#030303;fontColor=#000000;fillColor=#f5f5f5;shadow=0;swimlaneLine=1;entryX=0.5;entryY=0;entryDx=0;entryDy=0;" parent="1" source="AlGqaDllIcV9lpxzXiRw-11" target="27" edge="1">
                    <mxGeometry width="100" height="100" relative="1" as="geometry">
                        <mxPoint x="1290" y="580" as="sourcePoint"/>
                        <mxPoint x="1290" y="769.375" as="targetPoint"/>
                        <Array as="points">
                            <mxPoint x="1305" y="134"/>
                            <mxPoint x="932" y="134"/>
                        </Array>
                    </mxGeometry>
                </mxCell>
                <mxCell id="31" value="&lt;div style=&quot;text-align: left;&quot;&gt;&lt;span style=&quot;background-color: initial;&quot;&gt;&lt;u&gt;Assumptions/limitations:&lt;/u&gt;&lt;/span&gt;&lt;/div&gt;&lt;div style=&quot;text-align: left;&quot;&gt;&lt;span style=&quot;background-color: initial;&quot;&gt;- A reservation is a placeholder for 3 types: accomodation, dinner and events. Specific details are in the respective tables.&lt;/span&gt;&lt;/div&gt;&lt;div style=&quot;text-align: left;&quot;&gt;&lt;span style=&quot;background-color: initial;&quot;&gt;- Services encompass all potential preferences. To query for guest preferences, one should query for which services a guest has ordered.&lt;/span&gt;&lt;br&gt;&lt;/div&gt;&lt;div style=&quot;text-align: left;&quot;&gt;- A service is optionally handled by a specific department (house keeping, laundry, reception...), this allows for resource planning.&amp;nbsp;&lt;/div&gt;&lt;div style=&quot;text-align: left;&quot;&gt;&lt;span style=&quot;background-color: initial;&quot;&gt;- Not all locations might have all service types, therefore a table LocationServiceTypes describing what is available where.&lt;/span&gt;&lt;br&gt;&lt;/div&gt;&lt;div style=&quot;text-align: left;&quot;&gt;- Space unit price is fixed in this model, there is no possibility to dynamically adjust the price based on the day (not required).&lt;/div&gt;&lt;div style=&quot;text-align: left;&quot;&gt;- A guest may have a loyalty program. The reservation has a number of loyalty points reward associated to it.&amp;nbsp;&lt;/div&gt;" style="text;html=1;align=center;verticalAlign=middle;resizable=0;points=[];autosize=1;strokeColor=#030303;fillColor=#f5f5f5;fontColor=#333333;shadow=0;swimlaneLine=1;" parent="1" vertex="1">
                    <mxGeometry x="806" y="981" width="747" height="113" as="geometry"/>
                </mxCell>
                <mxCell id="32" value="" style="fontSize=12;html=1;endArrow=ERzeroToMany;startArrow=ERmandOne;rounded=0;startSize=8;endSize=8;exitX=0.5;exitY=0;exitDx=0;exitDy=0;strokeColor=#030303;fontColor=#000000;fillColor=#f5f5f5;shadow=0;swimlaneLine=1;entryX=0.452;entryY=1.004;entryDx=0;entryDy=0;entryPerimeter=0;" parent="1" source="AlGqaDllIcV9lpxzXiRw-15" target="28" edge="1">
                    <mxGeometry width="100" height="100" relative="1" as="geometry">
                        <mxPoint x="1138.88" y="548.96" as="sourcePoint"/>
                        <mxPoint x="925" y="347" as="targetPoint"/>
                    </mxGeometry>
                </mxCell>
                <mxCell id="34" value="EventDetails" style="swimlane;childLayout=stackLayout;horizontal=1;startSize=50;horizontalStack=0;rounded=1;fontSize=14;fontStyle=0;strokeWidth=2;resizeParent=0;resizeLast=1;shadow=0;dashed=0;align=center;arcSize=4;whiteSpace=wrap;html=1;strokeColor=#030303;fillColor=#f5f5f5;fontColor=#333333;swimlaneLine=1;" parent="1" vertex="1">
                    <mxGeometry x="1093" y="178" width="182" height="172" as="geometry"/>
                </mxCell>
                <mxCell id="35" value="&lt;div&gt;EventDetailsID (PK)&amp;nbsp;&lt;/div&gt;&lt;div&gt;ReservationID (FK)&amp;nbsp;&lt;/div&gt;&lt;div&gt;&lt;span style=&quot;background-color: initial;&quot;&gt;SpaceID (FK)&lt;/span&gt;&lt;/div&gt;&lt;div&gt;&lt;span style=&quot;background-color: initial;&quot;&gt;Date&amp;nbsp;&lt;/span&gt;&lt;/div&gt;&lt;div&gt;&lt;span style=&quot;background-color: initial;&quot;&gt;StartTime&amp;nbsp;&lt;/span&gt;&lt;/div&gt;&lt;div&gt;&lt;span style=&quot;background-color: initial;&quot;&gt;EndTime &lt;span style=&quot;white-space: pre;&quot;&gt;&#9;&lt;/span&gt;&lt;span style=&quot;white-space: pre;&quot;&gt;&#9;&lt;/span&gt;&lt;span style=&quot;white-space: pre;&quot;&gt;&#9;&lt;/span&gt;&lt;/span&gt;&lt;br&gt;&lt;/div&gt;&lt;div&gt;&lt;span style=&quot;background-color: initial;&quot;&gt;NumberOfParticipants&amp;nbsp;&lt;/span&gt;&lt;br&gt;&lt;/div&gt;&lt;div&gt;Description&lt;/div&gt;" style="align=left;strokeColor=#030303;fillColor=#f5f5f5;spacingLeft=4;fontSize=12;verticalAlign=top;resizable=0;rotatable=0;part=1;html=1;fontColor=#333333;shadow=0;swimlaneLine=1;" parent="34" vertex="1">
                    <mxGeometry y="50" width="182" height="122" as="geometry"/>
                </mxCell>
                <mxCell id="36" value="" style="fontSize=12;html=1;endArrow=ERzeroToOne;startArrow=ERmandOne;rounded=0;startSize=8;endSize=8;entryX=0.625;entryY=1.012;entryDx=0;entryDy=0;exitX=0.204;exitY=0;exitDx=0;exitDy=0;exitPerimeter=0;endFill=1;strokeColor=#030303;fontColor=#000000;fillColor=#f5f5f5;shadow=0;swimlaneLine=1;entryPerimeter=0;" parent="1" source="AlGqaDllIcV9lpxzXiRw-11" target="35" edge="1">
                    <mxGeometry width="100" height="100" relative="1" as="geometry">
                        <mxPoint x="1140" y="560" as="sourcePoint"/>
                        <mxPoint x="1040.6399999999999" y="348.2249999999999" as="targetPoint"/>
                    </mxGeometry>
                </mxCell>
                <mxCell id="37" value="" style="fontSize=12;html=1;endArrow=ERzeroToMany;startArrow=ERmandOne;rounded=0;startSize=8;endSize=8;strokeColor=#030303;fontColor=#000000;fillColor=#f5f5f5;shadow=0;swimlaneLine=1;entryX=0.25;entryY=1;entryDx=0;entryDy=0;edgeStyle=orthogonalEdgeStyle;" parent="1" target="34" edge="1">
                    <mxGeometry width="100" height="100" relative="1" as="geometry">
                        <mxPoint x="980" y="478" as="sourcePoint"/>
                        <mxPoint x="770" y="361.61375" as="targetPoint"/>
                        <Array as="points">
                            <mxPoint x="980" y="418"/>
                            <mxPoint x="1138" y="418"/>
                        </Array>
                    </mxGeometry>
                </mxCell>
                <mxCell id="21" style="edgeStyle=orthogonalEdgeStyle;rounded=0;html=1;exitX=0;exitY=0.5;exitDx=0;exitDy=0;strokeColor=#030303;startArrow=ERzeroToMany;startFill=1;endArrow=ERzeroToOne;endFill=1;endSize=8;startSize=8;entryX=1;entryY=0.25;entryDx=0;entryDy=0;fontColor=#000000;fillColor=#f5f5f5;shadow=0;swimlaneLine=1;" parent="1" source="7" target="AlGqaDllIcV9lpxzXiRw-29" edge="1">
                    <mxGeometry relative="1" as="geometry">
                        <mxPoint x="620" y="970" as="sourcePoint"/>
                        <mxPoint x="500" y="980" as="targetPoint"/>
                        <Array as="points">
                            <mxPoint x="830" y="805"/>
                            <mxPoint x="830" y="930"/>
                            <mxPoint x="500" y="930"/>
                            <mxPoint x="500" y="968"/>
                        </Array>
                    </mxGeometry>
                </mxCell>
                <mxCell id="38" value="AccomodationDetails" style="swimlane;childLayout=stackLayout;horizontal=1;startSize=50;horizontalStack=0;rounded=1;fontSize=14;fontStyle=0;strokeWidth=2;resizeParent=0;resizeLast=1;shadow=0;dashed=0;align=center;arcSize=4;whiteSpace=wrap;html=1;strokeColor=#030303;fillColor=#f5f5f5;fontColor=#333333;swimlaneLine=1;" parent="1" vertex="1">
                    <mxGeometry x="563" y="177.13" width="226" height="173.75" as="geometry"/>
                </mxCell>
                <mxCell id="39" value="&lt;div&gt;AccomodationDetailsID (PK)&lt;/div&gt;&lt;div&gt;ReservationID (FK)&lt;/div&gt;&lt;div&gt;SpaceID (FK)&amp;nbsp;&lt;/div&gt;&lt;div&gt;&lt;span style=&quot;background-color: initial;&quot;&gt;NumberOfOccupants&lt;/span&gt;&lt;/div&gt;" style="align=left;strokeColor=#030303;fillColor=#f5f5f5;spacingLeft=4;fontSize=12;verticalAlign=top;resizable=0;rotatable=0;part=1;html=1;fontColor=#333333;shadow=0;swimlaneLine=1;" parent="38" vertex="1">
                    <mxGeometry y="50" width="226" height="123.75" as="geometry"/>
                </mxCell>
                <mxCell id="40" value="" style="fontSize=12;html=1;endArrow=ERzeroToMany;startArrow=ERmandOne;rounded=0;startSize=8;endSize=8;entryX=0.5;entryY=1;entryDx=0;entryDy=0;exitX=0.181;exitY=0;exitDx=0;exitDy=0;strokeColor=#030303;fontColor=#000000;fillColor=#f5f5f5;shadow=0;swimlaneLine=1;exitPerimeter=0;edgeStyle=orthogonalEdgeStyle;" parent="1" source="AlGqaDllIcV9lpxzXiRw-15" target="38" edge="1">
                    <mxGeometry width="100" height="100" relative="1" as="geometry">
                        <mxPoint x="926" y="481" as="sourcePoint"/>
                        <mxPoint x="933" y="351" as="targetPoint"/>
                    </mxGeometry>
                </mxCell>
                <mxCell id="41" value="" style="fontSize=12;html=1;endArrow=ERzeroToMany;startArrow=ERmandOne;rounded=0;startSize=8;endSize=8;exitX=0.918;exitY=-0.009;exitDx=0;exitDy=0;strokeColor=#030303;fontColor=#000000;fillColor=#f5f5f5;shadow=0;swimlaneLine=1;entryX=0.5;entryY=0;entryDx=0;entryDy=0;exitPerimeter=0;" parent="1" target="38" edge="1">
                    <mxGeometry width="100" height="100" relative="1" as="geometry">
                        <mxPoint x="1336.2399999999998" y="459.1099999999999" as="sourcePoint"/>
                        <mxPoint x="933" y="177.25" as="targetPoint"/>
                        <Array as="points">
                            <mxPoint x="1336" y="116"/>
                            <mxPoint x="676" y="116"/>
                        </Array>
                    </mxGeometry>
                </mxCell>
                <mxCell id="46" value="" style="fontSize=12;html=1;endArrow=ERzeroToMany;startArrow=ERmandOne;rounded=0;startSize=8;endSize=8;strokeColor=#030303;fontColor=#000000;fillColor=#f5f5f5;shadow=0;swimlaneLine=1;entryX=0.996;entryY=0.527;entryDx=0;entryDy=0;entryPerimeter=0;" parent="1" target="AlGqaDllIcV9lpxzXiRw-33" edge="1">
                    <mxGeometry width="100" height="100" relative="1" as="geometry">
                        <mxPoint x="1434" y="820" as="sourcePoint"/>
                        <mxPoint x="1324" y="822" as="targetPoint"/>
                    </mxGeometry>
                </mxCell>
            </root>
        </mxGraphModel>
    </diagram>
</mxfile>